<?xml version="1.0" encoding="UTF-8"?>
<svg width="500px" height="500px" viewBox="0 0 500 500" version="1.1" xmlns="http://www.w3.org/2000/svg" xmlns:xlink="http://www.w3.org/1999/xlink">
    <!-- Generator: Sketch 50.2 (55047) - http://www.bohemiancoding.com/sketch -->
    <title>02d</title>
    <desc>Created with Sketch.</desc>
    <defs></defs>
    <g id="02d" stroke="none" stroke-width="1" fill="none" fill-rule="evenodd">
        <g transform="translate(63.000000, 120.000000)" fill="#FFFFFF" fill-rule="nonzero" id="Shape">
            <path d="M0,171.292531 C0,150.53527 6.49663138,132.124481 19.4898941,115.879668 C32.4831569,99.6348548 48.9051973,89.1659751 68.9364774,84.653527 C74.5307988,59.9253112 87.3435996,39.7095436 107.013956,23.8257261 C126.684312,7.94190871 149.422522,0 174.867661,0 C199.771415,0 221.968239,7.76141079 241.458133,23.1037344 C260.948027,38.4460581 273.580366,58.3008299 279.355149,82.4875519 L285.310395,82.4875519 C301.551973,82.4875519 316.530318,86.4585062 330.245428,94.219917 C343.960539,101.981328 354.96872,112.811203 362.909047,126.529046 C370.849374,140.246888 375,155.047718 375,171.292531 C375,187.176349 371.210298,201.977178 363.630895,215.514523 C356.051492,229.051867 345.584697,239.881743 332.410972,248.004149 C319.237247,256.126556 304.619827,260.458506 288.919634,261 L86.6217517,261 C62.439846,259.917012 42.047642,250.711618 25.2646776,233.383817 C8.48171319,216.236515 0,195.479253 0,171.292531 Z M30.858999,171.292531 C30.858999,186.995851 36.2728585,200.533195 47.1005775,212.085062 C57.9282964,223.636929 71.1020212,229.773859 86.6217517,230.676349 L288.55871,230.676349 C304.078441,229.954357 317.252166,223.636929 328.079885,212.085062 C339.088065,200.533195 344.501925,186.815353 344.501925,171.292531 C344.501925,155.408714 338.546679,141.871369 326.816651,130.319502 C315.086622,118.767635 301.191049,112.991701 284.949471,112.991701 L256.075553,112.991701 C254.090472,112.991701 253.0077,111.908714 253.0077,109.742739 L251.744466,99.4543568 C249.759384,79.9605809 241.277671,63.5352697 226.479788,50.3589212 C211.681906,37.1825726 194.538017,30.5041494 174.867661,30.5041494 C155.197305,30.5041494 137.872955,37.1825726 123.435996,50.3589212 C108.818576,63.5352697 100.517324,79.9605809 98.7127045,99.4543568 L97.2690087,109.742739 C97.2690087,111.908714 96.0057748,112.991701 93.659769,112.991701 L84.0952839,112.991701 C68.9364774,114.79668 56.3041386,121.294606 46.1982676,132.304979 C36.0923965,143.315353 30.858999,156.311203 30.858999,171.292531 Z"></path>
        </g>
    </g>
</svg>