<?xml version="1.0" encoding="UTF-8"?>
<svg width="500px" height="500px" viewBox="0 0 500 500" version="1.1" xmlns="http://www.w3.org/2000/svg" xmlns:xlink="http://www.w3.org/1999/xlink">
    <!-- Generator: Sketch 50.2 (55047) - http://www.bohemiancoding.com/sketch -->
    <title>11n</title>
    <desc>Created with Sketch.</desc>
    <defs></defs>
    <g id="11n" stroke="none" stroke-width="1" fill="none" fill-rule="evenodd">
        <g transform="translate(58.000000, 55.000000)" fill="#FFFFFF" fill-rule="nonzero" id="Shape">
            <path d="M0,203.608108 C0,223.108108 5.80751604,240.5 17.4225481,255.959459 C29.0375802,271.418919 44.172319,281.783784 62.8267644,287.405405 L51.2117324,317.094595 C50.6837764,319.554054 51.563703,320.783784 53.8515124,320.783784 L91.1604033,320.783784 L74.0898258,382.445946 L79.1934005,382.445946 L148.003666,295.662162 C148.707608,294.783784 148.707608,293.905405 148.179652,293.027027 C147.651696,292.148649 146.771769,291.797297 145.539872,291.797297 L107.175069,291.797297 L150.819432,210.459459 C152.051329,208 151.347388,206.594595 148.531622,206.594595 L96.4399633,206.594595 C94.8560953,206.594595 93.624198,207.472973 92.3923006,209.054054 L73.5618698,259.648649 C60.8909258,256.486486 50.507791,249.635135 42.2364803,239.094595 C33.9651696,228.554054 29.9175069,216.783784 29.9175069,203.783784 C29.9175069,189.202703 34.8450962,176.554054 44.8762603,165.662162 C54.9074244,154.77027 67.2263978,148.621622 81.8331806,146.864865 L90.984418,145.459459 C93.2722273,145.459459 94.5041247,144.405405 94.5041247,142.472973 L95.736022,133.337838 C97.6718607,114.364865 105.591201,98.3783784 119.846013,85.5540541 C134.100825,72.7297297 150.819432,66.2297297 170.001833,66.2297297 C189.008249,66.2297297 205.726856,72.7297297 220.157654,85.5540541 C234.588451,98.3783784 242.859762,114.364865 244.971586,133.162162 L246.203483,143.527027 C246.203483,145.459459 247.259395,146.513514 249.371219,146.513514 L277.880843,146.513514 C293.895509,146.513514 307.446379,152.135135 318.885426,163.202703 C330.324473,174.27027 335.956004,187.797297 335.956004,203.432432 C335.956004,218.364865 330.676444,231.364865 320.117324,242.256757 C309.558203,253.148649 296.711274,259.297297 281.40055,260.527027 C279.288726,260.527027 278.056829,261.581081 278.056829,263.513514 L278.056829,287.756757 C278.056829,289.864865 279.112741,290.918919 281.40055,290.918919 C296.887259,290.391892 310.966086,286.175676 323.813016,278.27027 C336.659945,270.364865 346.867094,259.824324 354.258478,246.648649 C361.649863,233.472973 365.345555,219.067568 365.345555,203.608108 C365.345555,188.324324 361.473877,174.094595 353.730522,160.567568 C367.633364,147.216216 376.784601,131.932432 381.184235,114.540541 L383.648029,101.891892 C383.824015,101.716216 384,101.189189 384,100.662162 C384,99.4324324 383.120073,98.5540541 381.184235,98.027027 L371.329056,94.8648649 C361.297892,92.0540541 352.67461,87.1351351 345.635197,80.4594595 C338.419798,73.7837838 333.316224,66.4054054 330.324473,58.8513514 C327.332722,51.1216216 325.748854,43.3918919 325.748854,35.6621622 C325.748854,31.0945946 326.27681,26.3513514 327.156737,21.6081081 L329.620532,10.8918919 C330.324473,9.13513514 329.620532,7.72972973 327.156737,6.85135135 C323.461045,5.27027027 318.181485,3.86486486 311.318057,2.28378378 C304.454629,0.702702703 297.767186,0 291.079743,0 C284.744271,0 278.232814,0.702702703 271.369386,2.28378378 C264.681943,3.86486486 257.64253,6.14864865 250.427131,9.48648649 C243.211732,12.6486486 236.172319,17.3918919 229.308891,23.5405405 C222.445463,29.6891892 216.637947,36.7162162 211.710357,44.972973 C197.27956,39.7027027 183.200733,37.0675676 169.825848,37.0675676 C145.011916,37.0675676 122.837764,44.7972973 103.655362,60.0810811 C84.4729606,75.3648649 71.9780018,95.0405405 66.5224565,119.108108 C46.9880843,123.675676 30.9734189,133.864865 18.3024748,149.675676 C6.33547204,165.135135 0,183.22973 0,203.608108 Z M142.548121,376.121622 C142.548121,378.932432 143.428048,381.743243 145.187901,384.202703 C146.947754,386.837838 149.587534,388.594595 153.107241,389.472973 C155.04308,389.824324 156.802933,390 158.386801,390 C165.6022,390 170.001833,386.310811 171.761687,378.932432 L212.590284,224.513514 C213.646196,220.297297 213.294225,216.608108 211.358387,213.094595 C209.422548,209.581081 206.430797,207.297297 202.55912,206.243243 C198.511457,205.013514 194.63978,205.364865 191.120073,207.297297 C187.600367,209.22973 185.136572,212.040541 184.08066,215.905405 L143.252062,371.202703 C142.724106,372.959459 142.548121,374.540541 142.548121,376.121622 Z M215.934005,323.067568 C215.934005,325.878378 216.813932,328.689189 218.573786,331.148649 C220.333639,333.608108 222.973419,335.540541 226.669111,336.594595 C227.197067,336.594595 228.076994,336.594595 229.308891,336.77027 C230.540788,336.945946 231.5967,336.945946 232.124656,336.945946 C238.812099,336.945946 243.035747,333.256757 244.7956,325.878378 L271.193401,224.513514 C272.249313,220.297297 271.897342,216.432432 269.785518,212.918919 C267.849679,209.581081 264.857929,207.297297 260.810266,206.243243 C256.762603,205.013514 252.890926,205.364865 249.371219,207.297297 C245.851512,209.22973 243.563703,212.040541 242.507791,216.081081 L216.109991,318.324324 C216.109991,320.081081 215.934005,321.662162 215.934005,323.067568 Z M237.756187,60.7837838 C243.563703,50.7702703 251.307058,43.2162162 261.162236,37.9459459 C270.84143,32.6756757 281.224565,30.0405405 292.135655,30.0405405 C294.247479,30.0405405 296.007333,30.0405405 296.887259,30.2162162 L296.887259,35.8378378 C296.887259,52.7027027 301.462878,68.6891892 310.614115,83.7972973 C319.765353,98.9054054 332.612282,110.324324 348.802933,118.405405 C345.635197,125.783784 341.059578,131.932432 334.900092,137.202703 C318.709441,123.324324 299.87901,116.472973 278.232814,116.472973 L272.601283,116.472973 C267.673694,94.3378378 256.058662,75.8918919 237.756187,60.7837838 Z"></path>
        </g>
    </g>
</svg>