<?xml version="1.0" encoding="UTF-8"?>
<svg width="500px" height="500px" viewBox="0 0 500 500" version="1.1" xmlns="http://www.w3.org/2000/svg" xmlns:xlink="http://www.w3.org/1999/xlink">
    <!-- Generator: Sketch 50.2 (55047) - http://www.bohemiancoding.com/sketch -->
    <title>03d</title>
    <desc>Created with Sketch.</desc>
    <defs></defs>
    <g id="03d" stroke="none" stroke-width="1" fill="none" fill-rule="evenodd">
        <g transform="translate(45.000000, 115.000000)" fill="#FFFFFF" fill-rule="nonzero" id="Shape">
            <path d="M0,191.134773 C0,172.763815 5.72264746,156.248509 17.1679424,141.959985 C28.6132373,127.671462 43.1967582,118.3932 61.1031067,114.310765 C65.9027465,92.5996316 76.7942368,74.5998035 93.9621792,60.8679758 C111.130122,46.9505829 130.882485,40.084669 153.403872,40.084669 C175.186853,40.084669 194.754615,46.7650176 211.737956,60.3112801 C228.905898,73.8575425 239.98199,91.1151097 244.966231,112.269547 L249.950473,112.269547 C271.733453,112.269547 290.193606,119.877722 305.515534,135.279637 C320.837461,150.681551 328.590725,169.238075 328.590725,190.949208 C328.590725,212.845906 320.837461,231.40243 305.515534,246.804345 C290.193606,262.20626 271.733453,270 249.950473,270 L78.8248537,270 C68.1179649,270 57.9648807,267.958782 48.3656011,263.690782 C38.7663215,259.422781 30.0900495,254.226955 23.0751914,247.175476 C16.0603332,240.123997 10.5222873,231.587996 6.27645205,221.938603 C2.03061684,212.289211 0,201.711992 0,191.134773 Z M26.767222,191.134773 C26.767222,205.237732 31.9360648,217.485037 41.9045475,227.50556 C51.8730302,237.526083 64.2413327,242.72191 78.6402521,242.72191 L249.950473,242.72191 C264.164791,242.72191 276.533093,237.711648 286.686177,227.50556 C296.839262,217.299472 302.008104,205.237732 302.008104,191.134773 C302.008104,177.031815 297.023863,164.78451 286.686177,154.763987 C276.533093,144.743464 264.349392,139.547637 249.950473,139.547637 L224.29086,139.547637 C222.444845,139.547637 221.521837,138.619811 221.521837,136.764158 L220.229626,127.671462 C218.383611,110.228329 210.99955,95.5686755 198.262044,84.0636307 C185.524538,72.5585858 170.387213,66.8060634 153.034669,66.8060634 C135.682125,66.8060634 120.5448,72.5585858 107.622692,84.2491959 C94.7005853,95.7542407 87.5011256,110.413895 85.8397118,127.671462 L84.5475011,135.465202 C84.5475011,137.320854 83.6244935,138.24868 81.5938766,138.24868 L73.2868077,139.547637 C59.9954975,140.661029 48.9194057,146.227986 39.8739307,156.062943 C31.3822602,165.897901 26.767222,177.588511 26.767222,191.134773 Z M190.139577,29.3218852 C188.293561,30.9919723 188.662765,32.290929 191.431787,33.2187552 C199.369653,36.7444947 206.015308,40.084669 211.368753,43.4248433 C213.39937,43.9815391 214.876182,43.7959738 215.429986,42.8681476 C226.69068,32.290929 239.612787,26.9095371 254.565511,26.9095371 C269.518235,26.9095371 282.255741,31.9197985 293.331833,41.9403214 C304.223323,51.9608443 310.315173,64.3937153 311.607384,79.0533692 L313.268798,90.9295445 L339.482215,90.9295445 C351.481315,90.9295445 361.819,95.197545 370.495272,103.919111 C379.171544,112.640677 383.41738,122.846766 383.41738,134.722941 C383.41738,145.856855 379.540747,155.506248 371.972085,163.856683 C364.403422,172.207119 354.988744,176.84625 343.72805,178.145207 C341.882035,178.145207 340.959027,179.073033 340.959027,181.114251 L340.959027,202.083123 C340.959027,204.12434 341.882035,205.052166 343.72805,205.052166 C362.372805,203.938775 378.063935,196.516165 390.801441,182.969903 C403.538946,169.423641 410,153.279465 410,134.722941 C410,115.053026 403.169743,98.352154 389.324629,84.6203264 C375.479514,70.7029335 358.865376,63.8370196 339.482215,63.8370196 L336.713192,63.8370196 C331.913552,45.2804957 321.760468,30.0641461 306.25394,18.0024056 C290.932013,5.94066509 273.579469,0.00257744231 254.565511,0.00257744231 C228.721297,-0.182987797 207.122918,9.65196986 190.139577,29.3218852 Z"></path>
        </g>
    </g>
</svg>