<?xml version="1.0" encoding="UTF-8"?>
<svg width="500px" height="500px" viewBox="0 0 500 500" version="1.1" xmlns="http://www.w3.org/2000/svg" xmlns:xlink="http://www.w3.org/1999/xlink">
    <!-- Generator: Sketch 50.2 (55047) - http://www.bohemiancoding.com/sketch -->
    <title>11d</title>
    <desc>Created with Sketch.</desc>
    <defs></defs>
    <g id="11d" stroke="none" stroke-width="1" fill="none" fill-rule="evenodd">
        <g transform="translate(53.000000, 58.000000)" fill="#FFFFFF" fill-rule="nonzero" id="Shape">
            <path d="M0.577142857,234.257143 C0.577142857,250.431429 5.38571429,264.711429 14.8571429,277.388571 C24.3285714,290.065714 36.86,298.662857 52.3057143,303.325714 L42.98,328.097143 C42.3971429,330.137143 42.98,331.157143 45.02,331.157143 L76.0571429,331.157143 L57.8428571,388.714286 L62.0685714,388.714286 L122.831429,310.174286 C123.414286,309.591429 123.414286,308.862857 122.977143,308.134286 C122.685714,307.405714 121.957143,307.114286 120.937143,307.114286 L89.3171429,307.114286 L125.308571,239.648571 C126.328571,237.608571 125.6,236.442857 123.268571,236.442857 L80.4285714,236.442857 C79.1171429,236.442857 77.9514286,237.171429 77.0771429,238.482857 L61.4857143,280.448571 C51.14,277.825714 42.5428571,272.142857 35.6942857,263.545714 C28.8457143,254.948571 25.4942857,245.185714 25.4942857,234.257143 C25.4942857,222.162857 29.5742857,211.671429 37.88,202.637143 C46.1857143,193.602857 56.3857143,188.502857 68.48,187.045714 L76.0571429,186.171429 C77.9514286,186.171429 78.9714286,185.297143 78.9714286,183.548571 L79.8457143,176.117143 C81.4485714,160.38 88.1514286,147.12 99.9542857,136.482857 C111.757143,125.845714 125.745714,120.454286 141.628571,120.454286 C157.511429,120.454286 171.354286,125.845714 183.157143,136.482857 C194.96,147.12 201.808571,160.38 203.557143,176.117143 L204.431429,184.568571 C204.431429,186.171429 205.305714,187.045714 207.054286,187.045714 L230.514286,187.045714 C243.774286,187.045714 254.994286,191.708571 264.32,200.888571 C273.645714,210.068571 278.308571,221.142857 278.308571,234.257143 C278.308571,246.642857 273.937143,257.425714 265.34,266.46 C256.742857,275.494286 246.105714,280.594286 233.428571,281.614286 C231.534286,281.614286 230.514286,282.488571 230.514286,284.237143 L230.514286,304.2 C230.514286,305.802857 231.534286,306.677143 233.428571,306.677143 C252.808571,306.094286 269.274286,298.662857 282.825714,284.674286 C296.377143,270.685714 303.08,253.928571 303.08,234.402857 C303.08,223.62 301.04,213.857143 296.814286,205.114286 C308.325714,191.125714 314.008571,175.097143 314.008571,156.737143 C314.008571,143.04 310.511429,130.362857 303.662857,118.56 C296.814286,106.757143 287.488571,97.4314286 275.685714,90.5828571 C263.882857,83.7342857 251.205714,80.2371429 237.508571,80.2371429 C215.068571,80.2371429 196.125714,88.6885714 180.971429,105.445714 C169.168571,99.18 156.054286,95.9742857 141.628571,95.9742857 C121.082857,95.9742857 102.722857,102.385714 86.84,115.062857 C70.9571429,127.74 60.7571429,144.06 56.24,164.022857 C40.0657143,167.811429 26.8057143,176.117143 16.46,189.231429 C6.11428571,202.345714 0.577142857,217.5 0.577142857,234.257143 Z M118.46,373.851429 C118.314286,376.037143 118.897143,378.222857 120.5,380.262857 C122.102857,382.302857 124.288571,383.905714 127.202857,385.071429 C128.222857,385.362857 129.242857,385.508571 130.262857,385.508571 C132.74,385.508571 135.217143,384.78 137.694286,383.322857 C140.171429,381.865714 141.774286,379.534286 142.648571,376.474286 L176.017143,251.597143 C176.891429,248.245714 176.6,245.04 174.997143,242.271429 C173.394286,239.357143 171.062857,237.462857 167.857143,236.442857 C164.505714,235.422857 161.3,235.714286 158.385714,237.462857 C155.471429,239.065714 153.431429,241.542857 152.557143,244.894286 L118.897143,370.208571 C118.605714,371.228571 118.46,372.54 118.46,373.851429 Z M123.268571,55.4657143 C123.268571,58.9628571 124.434286,61.7314286 126.911429,64.0628571 L136.237143,73.68 C138.714286,76.1571429 141.628571,77.3228571 145.125714,77.4685714 C148.622857,77.4685714 151.391429,76.3028571 153.431429,73.68 C156.2,71.4942857 157.511429,68.58 157.511429,64.9371429 C157.511429,61.44 156.345714,58.6714286 153.868571,56.34 L144.688571,46.7228571 C142.211429,44.3914286 139.151429,43.2257143 135.8,43.2257143 C132.157143,43.2257143 129.097143,44.3914286 126.765714,46.7228571 C124.434286,49.0542857 123.268571,51.9685714 123.268571,55.4657143 Z M179.077143,329.408571 C179.077143,331.157143 179.66,332.905714 180.68,334.945714 C182.574286,337.86 184.905714,339.9 187.965714,341.211429 C188.985714,341.648571 190.442857,341.94 192.337143,341.94 C194.522857,341.94 196.125714,341.648571 197.145714,341.065714 C200.06,339.9 202.1,336.985714 203.12,332.614286 L224.831429,251.742857 C225.705714,248.245714 225.414286,245.185714 223.811429,242.271429 C222.208571,239.502857 219.731429,237.608571 216.38,236.588571 C213.028571,235.568571 209.822857,235.86 207.054286,237.608571 C204.14,239.211429 202.245714,241.688571 201.371429,245.04 L179.514286,326.057143 C179.514286,326.348571 179.368571,326.931429 179.222857,327.66 C179.077143,328.534286 179.077143,328.971429 179.077143,329.408571 Z M201.371429,119.725714 C211.134286,110.4 223.082857,105.591429 237.508571,105.591429 C251.642857,105.591429 263.882857,110.545714 273.937143,120.454286 C283.991429,130.362857 289.091429,142.457143 289.091429,156.591429 C289.091429,165.625714 286.614286,174.66 281.514286,183.548571 C267.088571,169.268571 250.04,162.128571 230.514286,162.128571 L225.997143,162.128571 C221.48,145.08 213.174286,130.945714 201.371429,119.725714 Z M224.831429,43.2257143 C224.831429,46.5771429 226.142857,49.4914286 228.62,51.9685714 C231.097143,54.4457143 234.011429,55.7571429 237.362857,55.7571429 C240.86,55.7571429 243.628571,54.5914286 245.96,52.1142857 C248.291429,49.6371429 249.311429,46.7228571 249.311429,43.2257143 L249.311429,13.2085714 C249.311429,9.71142857 248.145714,6.79714286 245.96,4.32 C243.774286,1.84285714 240.86,0.677142857 237.362857,0.677142857 C234.011429,0.677142857 231.097143,1.84285714 228.62,4.32 C226.142857,6.79714286 224.831429,9.71142857 224.831429,13.2085714 L224.831429,43.2257143 Z M305.411429,76.4485714 C305.411429,79.9457143 306.722857,82.86 309.2,85.1914286 C311.24,87.6685714 314.008571,88.8342857 317.505714,88.8342857 C321.002857,88.8342857 323.917143,87.6685714 326.248571,85.1914286 L347.231429,64.0628571 C349.708571,61.7314286 351.02,58.9628571 351.02,55.4657143 C351.02,51.9685714 349.854286,49.0542857 347.377143,46.5771429 C344.9,44.1 341.985714,42.9342857 338.488571,42.9342857 C335.282857,42.9342857 332.514286,44.2457143 330.182857,46.7228571 L309.2,67.7057143 C306.722857,70.0371429 305.411429,72.9514286 305.411429,76.4485714 Z M317.214286,249.265714 C317.214286,252.471429 318.38,255.385714 320.711429,258.008571 L330.328571,267.188571 C332.077143,269.228571 334.845714,270.54 338.197143,270.685714 L338.342857,270.831429 C338.488571,270.831429 338.78,270.831429 339.071429,270.831429 C339.362857,270.831429 339.508571,270.831429 339.8,270.831429 C342.568571,270.831429 345.045714,269.52 347.522857,267.042857 C350,264.711429 351.311429,261.797143 351.311429,258.3 C351.311429,254.948571 350,252.034286 347.522857,249.411429 L338.051429,240.522857 C335.72,237.9 332.805714,236.588571 329.6,236.588571 C326.248571,236.588571 323.334286,237.754286 320.857143,240.231429 C318.38,242.854286 317.214286,245.914286 317.214286,249.265714 Z M338.342857,156.737143 C338.342857,160.088571 339.654286,163.002857 342.277143,165.48 C344.9,168.102857 347.814286,169.414286 351.165714,169.414286 L380.745714,169.414286 C384.097143,169.414286 387.011429,168.102857 389.488571,165.625714 C391.965714,163.148571 393.277143,160.088571 393.277143,156.737143 C393.277143,153.385714 392.111429,150.471429 389.634286,148.14 C387.157143,145.808571 384.242857,144.642857 380.745714,144.642857 L351.165714,144.642857 C347.522857,144.642857 344.462857,145.808571 341.985714,148.14 C339.508571,150.471429 338.342857,153.385714 338.342857,156.737143 Z"></path>
        </g>
    </g>
</svg>