<?xml version="1.0" encoding="UTF-8"?>
<svg width="500px" height="500px" viewBox="0 0 500 500" version="1.1" xmlns="http://www.w3.org/2000/svg" xmlns:xlink="http://www.w3.org/1999/xlink">
    <!-- Generator: Sketch 50.2 (55047) - http://www.bohemiancoding.com/sketch -->
    <title>50neu</title>
    <desc>Created with Sketch.</desc>
    <defs></defs>
    <g id="50neu" stroke="none" stroke-width="1" fill="none" fill-rule="evenodd">
        <g transform="translate(70.000000, 125.000000)" fill="#FFFFFF" fill-rule="nonzero" id="Shape">
            <path d="M0.0376923077,198.505556 C0.0376923077,195.012222 1.20384615,191.955556 3.68192308,189.626667 C6.16,187.297778 9.22115385,186.133333 12.8653846,186.133333 L285.016538,186.133333 C288.660769,186.133333 291.576154,187.297778 293.908462,189.626667 C296.240769,191.955556 297.406923,194.866667 297.406923,198.505556 C297.406923,201.853333 296.240769,204.764444 293.762692,206.947778 C291.284615,209.276667 288.369231,210.295556 285.016538,210.295556 L12.8653846,210.295556 C9.22115385,210.295556 6.16,209.131111 3.68192308,206.947778 C1.20384615,204.618889 0.0376923077,201.853333 0.0376923077,198.505556 Z M38.2292308,152.801111 C38.2292308,149.307778 39.5411538,146.396667 42.0192308,144.067778 C44.2057692,141.884444 47.1211538,140.72 50.6196154,140.72 L322.770769,140.72 C326.123462,140.72 328.893077,141.884444 331.225385,144.213333 C333.557692,146.542222 334.578077,149.307778 334.578077,152.801111 C334.578077,156.294444 333.411923,159.205556 331.225385,161.534444 C328.893077,164.008889 326.123462,165.173333 322.770769,165.173333 L50.6196154,165.173333 C47.1211538,165.173333 44.2057692,164.008889 41.8734615,161.534444 C39.3953846,159.06 38.2292308,156.148889 38.2292308,152.801111 Z M40.1242308,118.013333 C40.1242308,119.323333 40.8530769,119.905556 42.3107692,119.905556 L63.1557692,119.905556 C64.0303846,119.905556 65.0507692,119.177778 66.0711538,117.576667 C69.5696154,110.007778 74.6715385,103.894444 81.5226923,99.0911111 C88.3738462,94.2877778 95.9538462,91.5222222 104.116923,90.94 L112.134231,89.9211111 C113.737692,89.9211111 114.612308,89.0477778 114.612308,87.3011111 L115.632692,80.0233333 C117.236154,64.3033333 123.795769,51.2033333 135.603077,40.7233333 C147.410385,30.2433333 161.258462,25.0033333 177.147308,25.0033333 C192.890385,25.0033333 206.592692,30.2433333 218.4,40.5777778 C230.061538,50.9122222 236.766923,64.0122222 238.370385,79.5866667 L239.536538,87.8833333 C239.536538,89.4844444 240.556923,90.3577778 242.451923,90.3577778 L265.629231,90.3577778 C274.958462,90.3577778 283.558846,92.8322222 291.284615,97.9266667 C299.010385,103.021111 304.695385,109.571111 308.485385,117.867778 C309.505769,119.468889 310.526154,120.196667 311.546538,120.196667 L332.391538,120.196667 C334.140769,120.196667 334.869615,119.177778 334.432308,116.848889 C330.205,102.002222 321.604615,89.7755556 309.068462,80.3144444 C296.386538,70.8533333 281.955385,66.1955556 265.775,66.1955556 L261.110385,66.1955556 C256.3,46.8366667 246.096154,30.9711111 230.498846,18.5988889 C214.901538,6.22666667 197.263462,0.113333333 177.293077,0.113333333 C156.885385,0.113333333 138.81,6.51777778 122.921154,19.3266667 C107.032308,32.1355556 96.9742308,48.4377778 92.4553846,68.2333333 C80.065,71.1444444 69.1323077,76.9666667 59.8030769,85.8455556 C50.4738462,94.7244444 43.9142308,105.204444 40.27,117.576667 L40.27,116.994444 C40.1242308,116.994444 40.1242308,117.431111 40.1242308,118.013333 Z M63.5930769,243.045556 C63.5930769,239.552222 64.905,236.786667 67.3830769,234.457778 C69.5696154,232.274444 72.485,231.11 76.1292308,231.11 L348.426154,231.11 C351.924615,231.11 354.84,232.274444 357.172308,234.457778 C359.650385,236.786667 360.816538,239.552222 360.816538,242.9 C360.816538,246.393333 359.650385,249.304444 357.172308,251.778889 C354.694231,254.253333 351.778846,255.417778 348.426154,255.417778 L76.1292308,255.417778 C72.7765385,255.417778 69.8611538,254.107778 67.3830769,251.633333 C64.905,249.45 63.5930769,246.393333 63.5930769,243.045556 Z"></path>
        </g>
    </g>
</svg>